[gd_scene load_steps=4 format=3 uid="uid://dfa5i5d37fjst"]

[ext_resource type="Script" path="res://ui/healthbar/healthbar.gd" id="1_aatle"]
[ext_resource type="Texture2D" uid="uid://ctepmcc0wkjyp" path="res://art/heartfull.png" id="1_vl7e6"]
[ext_resource type="Texture2D" uid="uid://dy61tjb8om0he" path="res://art/heart.png" id="2_vl5g4"]

[node name="Healthbar" type="Node2D"]
script = ExtResource("1_aatle")
heart1 = ExtResource("1_vl7e6")
heart0 = ExtResource("2_vl5g4")

[node name="hp1" type="Sprite2D" parent="."]
position = Vector2(9, 9)

[node name="hp2" type="Sprite2D" parent="."]
position = Vector2(25, 9)

[node name="hp3" type="Sprite2D" parent="."]
position = Vector2(41, 9)
