[gd_resource type="LabelSettings" load_steps=2 format=3 uid="uid://d3nysbbr4t7nt"]

[ext_resource type="FontFile" uid="uid://6q0de8di7k2b" path="res://ui/PixelifySans-Regular.ttf" id="1_6l2b5"]

[resource]
font = ExtResource("1_6l2b5")
font_size = 30
font_color = Color(0.278431, 0, 0, 1)
outline_size = 6
outline_color = Color(0.501961, 1, 0, 1)
shadow_size = 0
